Final_Project
…
ℹ Use `spec()` to retrieve the full column specification for this data.
ℹ Specify the column types or set `show_col_types = FALSE` to quiet this message.

Tidy Data

Convert Date to proper format

COVID19_Outcomes_Tennessee <- COVID19_Outcomes_Tennessee |>
  mutate(
    WEEK_END_DATE = as.Date(WEEK_END_DATE, format = "%Y %b %d %I:%M:%S %p"))
COVID19_Outcomes_Tennessee

# A tibble: 3,276 × 6
   CAT_DETAIL              WEEK_END_DATE CATEGORY CAT_TOTALCASES CAT_TOTALDEATHS
   <chr>                   <date>        <chr>             <dbl>           <dbl>
 1 White                   2024-12-31    RACE            1817150           24080
 2 Black or African Ameri… 2024-12-31    RACE             401950            4759
 3 Other/Multiracial       2024-12-31    RACE             194105            1095
 4 Asian                   2024-12-31    RACE              28458             140
 5 American Indian or Ala… 2024-12-31    RACE               4897              31
 6 Native Hawaiian or Oth… 2024-12-31    RACE               2472              14
 7 Unknown                 2024-12-31    RACE             369879            1034
 8 Not Hispanic or Latino  2024-12-31    ETHNICI…        1887139           27831
 9 Hispanic                2024-12-31    ETHNICI…         111967             629
10 Unknown                 2024-12-31    ETHNICI…         819805            2693
# ℹ 3,266 more rows
# ℹ 1 more variable: CAT_TOTALHOSP <dbl>
…
COVID19_Outcomes_clean <- COVID19_Outcomes_clean |>
  pivot_longer(
    cols = c(cases, deaths, hospitalizations),
    names_to = "outcomes",
    values_to = "count"
  )
COVID19_Outcomes_clean

# A tibble: 9,828 × 5
   group                     date       category outcomes           count
   <chr>                     <date>     <chr>    <chr>              <dbl>
 1 White                     2024-12-31 RACE     cases            1817150
 2 White                     2024-12-31 RACE     deaths             24080
 3 White                     2024-12-31 RACE     hospitalizations   39896
 4 Black or African American 2024-12-31 RACE     cases             401950
 5 Black or African American 2024-12-31 RACE     deaths              4759
 6 Black or African American 2024-12-31 RACE     hospitalizations   11879
 7 Other/Multiracial         2024-12-31 RACE     cases             194105
 8 Other/Multiracial         2024-12-31 RACE     deaths              1095
 9 Other/Multiracial         2024-12-31 RACE     hospitalizations    2839
10 Asian                     2024-12-31 RACE     cases              28458
# ℹ 9,818 more rows
…
Did COVID-19 death rates differ by gender relative to case counts?

Filter for gender only

gender_data <- COVID19_Outcomes_clean |>
  filter(category == "SEX",
         outcomes %in% c("cases", "deaths"))
gender_data

# A tibble: 1,512 × 5
   group   date       category outcomes   count
   <chr>   <date>     <chr>    <chr>      <dbl>
 1 Female  2024-12-31 SEX      cases    1553745
 2 Female  2024-12-31 SEX      deaths     14442
 3 Male    2024-12-31 SEX      cases    1247116
 4 Male    2024-12-31 SEX      deaths     16689
 5 Unknown 2024-12-31 SEX      cases      18050
 6 Unknown 2024-12-31 SEX      deaths        22
 7 Female  2024-12-28 SEX      cases    1553197
 8 Female  2024-12-28 SEX      deaths     14442
 9 Male    2024-12-28 SEX      cases    1246737
10 Male    2024-12-28 SEX      deaths     16689
# ℹ 1,502 more rows
…
